…
``` r
filter(zip_df, zip_code==10032)
```

    ## # A tibble: 1 × 7
    ##   county   state_fips county_code county_fips zip_code file_date neighborhood   
    ##   <chr>         <dbl> <chr>             <dbl>    <dbl> <chr>     <chr>          
    ## 1 New York         36 061               36061    10032 7/25/07   Inwood and Was…

``` r
filter(rent_df, zip_code==10032)
```

    ## # A tibble: 116 × 11
    ##    region_id size_rank zip_code region_type state_name state city   metro county
    ##        <dbl>     <dbl>    <dbl> <chr>       <chr>      <chr> <chr>  <chr> <chr> 
    ##  1     61646       388    10032 zip         NY         NY    New Y… New … New Y…
    ##  2     61646       388    10032 zip         NY         NY    New Y… New … New Y…
    ##  3     61646       388    10032 zip         NY         NY    New Y… New … New Y…
    ##  4     61646       388    10032 zip         NY         NY    New Y… New … New Y…
    ##  5     61646       388    10032 zip         NY         NY    New Y… New … New Y…
    ##  6     61646       388    10032 zip         NY         NY    New Y… New … New Y…
    ##  7     61646       388    10032 zip         NY         NY    New Y… New … New Y…
    ##  8     61646       388    10032 zip         NY         NY    New Y… New … New Y…
    ##  9     61646       388    10032 zip         NY         NY    New Y… New … New Y…
    ## 10     61646       388    10032 zip         NY         NY    New Y… New … New Y…
    ## # ℹ 106 more rows
    ## # ℹ 2 more variables: date <date>, observed_rent_index <dbl>
…
